{
  "results": [
    {
      "gender": "male",
      "name": {
        "title": "mr",
        "first": "ahmet",
        "last": "denkel"
      },
      "location": {
        "street": "662 necatibey cd",
        "city": "muş",
        "state": "iğdır",
        "postcode": 44414,
        "coordinates": {
          "latitude": "69.8592",
          "longitude": "-47.0200"
        },
        "timezone": {
          "offset": "+10:00",
          "description": "Eastern Australia, Guam, Vladivostok"
        }
      },
      "email": "ahmet.denkel@example.com",
      "login": {
        "uuid": "04f189f6-2cc3-440f-978e-767c57613111",
        "username": "lazywolf494",
        "password": "indian",
        "salt": "iVXopb9f",
        "md5": "051a4b93b3776506d9ee4c8bbdfdb50d",
        "sha1": "04946835d86ae79ab9d0b934bf1a23698933899d",
        "sha256": "5040032ba832682b17aea5dea59f8d8327392b0ec941065a37327a322056cb8f"
      },
      "dob": {
        "date": "1966-11-08T04:21:21Z",
        "age": 52
      },
      "registered": {
        "date": "2010-04-15T07:10:53Z",
        "age": 9
      },
      "phone": "(343)-011-0084",
      "cell": "(926)-505-2545",
      "id": {
        "name": "",
        "value": null
      },
      "picture": {
        "large": "https://randomuser.me/api/portraits/men/75.jpg",
        "medium": "https://randomuser.me/api/portraits/med/men/75.jpg",
        "thumbnail": "https://randomuser.me/api/portraits/thumb/men/75.jpg"
      },
      "nat": "TR"
    }
  ]
}
